%YAML 1.1
%TAG !u! tag:unity3d.com,2011:
--- !u!1045 &1
EditorBuildSettings:
  m_ObjectHideFlags: 0
  serializedVersion: 2
  m_Scenes:
  - enabled: 0
    path: Assets/Scenes/Amora/Amora_Prototype_V1.unity
    guid: 7e14125eb06886b4889c8e4c89338548
  - enabled: 1
    path: Assets/Scenes/Apodi/Apodi_Prototype.unity
    guid: 2e2f281ce758b5f4e8a497ffda52344f
  m_configObjects: {}
